<svg width="135" height="135" xmlns="http://www.w3.org/2000/svg" style="vector-effect: non-scaling-stroke;" stroke="null">

 <g stroke="null">
  <title stroke="null">background</title>
  <rect stroke="null" fill="none" id="canvas_background" height="137" width="137" y="-1" x="-1"/>
 </g>
 <g stroke="null">
  <title stroke="null">Layer 1</title>
  <path stroke="null" id="svg_1" fill-rule="evenodd" clip-rule="evenodd" fill="#010101" d="m58.734031,102.883866l14.588407,0l0,-34.844181l9.732094,0l1.289248,-12.006107l-11.021343,0l0.015142,-6.011593c0,-3.129615 0.302844,-4.809701 4.85415,-4.809701l6.082829,0l0,-12.008241l-9.734257,0c-11.691925,0 -15.806271,5.825865 -15.806271,15.62032l0,7.209214l-7.287714,0l0,12.008241l7.287714,0l0,34.842046zm9.161018,29.204043c-35.839373,0 -64.895049,-28.674613 -64.895049,-64.043954c0,-35.371476 29.055677,-64.043954 64.895049,-64.043954s64.895049,28.672478 64.895049,64.043954c0,35.369341 -29.055677,64.043954 -64.895049,64.043954z"/>
 </g>
</svg>